{
    "videos":[
        {
            "_id":11,
            "thumbnail":"../../../../assets/images/shipone.jpeg",
            "name":"Aft",
            "desc":"The Back of a ship"
        },
        {
            "_id":21,
            "thumbnail":"../../../../assets/images/shiptwo.jpeg",
            "name":"starboard",
            "desc":"Also Known as the best ship"

        },
        {
            "_id":31,
            "thumbnail":"../../../../assets/images/shipfour.jpeg",
            "name":"Toledo,Spain",
            "desc":"Back of a ship"
        },
        {
            "_id":41,
            "thumbnail":"../../../../assets/images/shipfive.jpeg",
            "name":"Leeward",
            "desc":"The Back of a ship"
        },
        {
            "_id":51,
            "thumbnail":"../../../../assets/images/shipsix.jpeg",
            "name":"Blue Ship",
            "desc":"The Back of a ship"
        },
        {
            "_id":61,
            "thumbnail":"../../../../assets/images/shipseven.jpeg",
            "name":"Grave",
            "desc":"The Back of a ship"
        },
        {
            "_id":71,
            "thumbnail":"../../../../assets/images/shipnine.jpeg",
            "name":"Seven Cross",
            "desc":"The Back of a ship"
        }
    ],
    "images":[
        {
            "_id":12,
            "thumbnail":"../../../../assets/images/shipfive.jpeg",
            "name":"Poster One",
            "desc":"Also Known as the best ship"
        },
        {
            "_id":22,
            "thumbnail":"../../../../assets/images/shipfour.jpeg",
            "name":"Cargo ship poster",
            "desc":"Also Known as ship"
        }
    ]
  }
  
  