[
    {
      "_id": 1,
      "shipName": "32IN ACADIA"
      
    },
    {
      "_id": 2,
      "shipName": "59FB BJOERN FOEYN"
     
    },
    {
      "_id": 3,
      "shipName": "352W DOWART DE LAGREE"
      
    },
    {
      "_id": 4,
      "shipName": "323C CHAROLETTE"
      
    },
    {
      "_id": 5,
      "shipName": "90Z ZWAYESTHA OLOA"
      
    }
  ]
  
  
  